idInteraction,OperationPerformed,dateTime,UserId,name,surname
579981,Add,"2016-08-19 16:03:02",-1,,
579971,Add,"2016-08-19 16:02:57",-1,,
579961,Add,"2016-08-19 16:01:08",-1,,
579941,Add,"2016-07-27 12:30:45",-1,,
579891,Add,"2016-07-27 12:23:19",-1,,
579881,Add,"2016-07-27 12:23:09",-1,,
579871,AddGroup,"2016-07-27 12:22:45",-1,,
579841,Add,"2016-07-27 10:20:45",-1,,
579761,Add,"2016-07-27 10:14:56",-1,,
579741,Add,"2016-07-27 10:14:35",-1,,
579731,AddGroup,"2016-07-27 10:14:28",-1,,
579721,AddGroup,"2016-07-27 10:14:03",-1,,
579711,Add,"2016-07-27 10:13:58",-1,,
579691,AddGroup,"2016-07-22 09:59:22",-1,,
579681,AddGroup,"2016-07-22 09:59:15",-1,,
579581,Add,"2016-07-22 09:28:54",-1,,
579561,Add,"2016-07-18 15:48:26",31,"Antonio Jesús","Fernández García"
579471,Add,"2016-07-18 15:45:02",-1,,
579461,Add,"2016-07-18 15:44:17",-1,,
579401,Add,"2016-07-18 14:45:52",-1,,
579351,Add,"2016-07-18 14:45:30",-1,,
579311,Add,"2016-07-18 14:37:00",-1,,
579281,Add,"2016-07-18 14:36:22",-1,,
579251,Add,"2016-07-18 08:11:24",-1,,
579211,Add,"2016-07-15 12:23:20",-1,,
579201,Add,"2016-07-15 11:22:29",-1,,
579191,AddGroup,"2016-07-15 11:22:10",-1,,
579181,AddGroup,"2016-07-15 11:21:39",-1,,
579171,AddGroup,"2016-07-15 11:21:12",-1,,
579161,Add,"2016-07-15 11:20:54",-1,,
579141,Add,"2016-07-06 09:37:42",-1,,
579101,Add,"2016-07-06 09:36:54",-1,,
579071,Add,"2016-07-06 07:31:26",-1,,
579061,Add,"2016-07-06 07:31:14",-1,,
579051,Add,"2016-07-06 07:12:01",-1,,
579021,Add,"2016-07-06 07:11:45",-1,,
579011,Add,"2016-07-06 07:11:42",-1,,
578981,Add,"2016-07-06 07:11:18",-1,,
578951,Add,"2016-07-06 07:11:05",-1,,
578931,Add,"2016-07-06 07:10:50",-1,,
578921,Add,"2016-07-06 07:10:48",-1,,
578911,Add,"2016-07-06 07:10:45",-1,,
578901,Add,"2016-07-06 07:10:43",-1,,
578891,Add,"2016-07-06 07:10:41",-1,,
578881,Add,"2016-07-06 07:10:35",-1,,
578871,Add,"2016-07-06 07:10:29",-1,,
578861,Add,"2016-07-06 07:10:29",-1,,
578761,AddGroup,"2016-07-04 07:54:04",31,"Antonio Jesús","Fernández García"
578751,Add,"2016-07-04 07:53:52",31,"Antonio Jesús","Fernández García"
578741,Add,"2016-07-04 07:53:43",31,"Antonio Jesús","Fernández García"
578731,Add,"2016-07-04 07:53:33",31,"Antonio Jesús","Fernández García"
578711,AddGroup,"2016-07-04 07:53:18",31,"Antonio Jesús","Fernández García"
578701,AddGroup,"2016-07-04 07:51:31",31,"Antonio Jesús","Fernández García"
578661,AddGroup,"2016-07-04 07:51:03",31,"Antonio Jesús","Fernández García"
578651,Add,"2016-07-04 07:50:58",31,"Antonio Jesús","Fernández García"
578631,AddGroup,"2016-07-04 07:50:52",31,"Antonio Jesús","Fernández García"
578582,AddGroup,"2016-07-04 07:50:00",31,"Antonio Jesús","Fernández García"
578571,AddGroup,"2016-07-04 07:49:49",31,"Antonio Jesús","Fernández García"
578561,AddGroup,"2016-07-04 07:49:41",31,"Antonio Jesús","Fernández García"
578531,AddGroup,"2016-07-04 07:48:18",-1,,
578521,AddGroup,"2016-07-04 07:48:12",-1,,
578511,AddGroup,"2016-07-04 07:48:03",-1,,
578491,AddGroup,"2016-07-04 07:47:40",-1,,
578351,Add,"2016-07-01 09:23:17",-1,,
578312,Add,"2016-06-07 07:29:15",-1,,
578251,Add,"2016-06-04 08:41:33",-1,,
578211,Add,"2016-06-04 08:41:15",-1,,
578201,Add,"2016-06-03 07:55:19",-1,,
578101,AddGroup,"2016-06-03 07:41:57",-1,,
578091,AddGroup,"2016-06-03 07:41:43",-1,,
578071,Add,"2016-06-03 07:40:35",-1,,
578031,Add,"2016-06-03 07:39:25",-1,,
577971,Add,"2016-06-02 07:46:15",-1,,
577931,Add,"2016-05-30 15:50:02",-1,,
577921,Add,"2016-05-30 15:49:46",-1,,
577881,Add,"2016-05-30 15:49:02",-1,,
577862,Add,"2016-05-30 15:48:32",-1,,
577821,Add,"2016-05-30 15:46:44",-1,,
577801,Add,"2016-05-26 09:42:33",-1,,
577711,AddGroup,"2016-05-23 12:43:00",-1,,
577701,AddGroup,"2016-05-23 12:42:33",-1,,
577651,Add,"2016-05-23 12:36:46",-1,,
577642,Add,"2016-05-23 12:35:27",-1,,
577632,Add,"2016-05-23 12:35:11",-1,,
577621,AddGroup,"2016-05-23 12:34:42",-1,,
577643,Add,"2016-05-23 12:34:13",-1,,
577633,AddGroup,"2016-05-23 12:34:05",-1,,
577623,Add,"2016-05-23 12:33:21",-1,,
577613,Add,"2016-05-23 12:32:57",-1,,
577601,Add,"2016-05-23 11:29:23",-1,,
577571,AddGroup,"2016-05-20 15:02:36",-1,,
577561,AddGroup,"2016-05-20 15:02:28",-1,,
577531,Add,"2016-05-20 07:58:50",-1,,
577521,Add,"2016-05-20 07:56:57",-1,,
577411,Add,"2016-05-20 07:47:30",-1,,
577361,Add,"2016-05-19 07:06:55",40,Javi,Criado
577351,Add,"2016-05-19 07:06:52",40,Javi,Criado
577291,Add,"2016-05-19 07:00:31",40,Javi,Criado
577271,AddGroup,"2016-05-18 12:23:38",40,Javi,Criado
577123,AddGroup,"2016-05-18 12:11:55",-1,,
577071,Add,"2016-05-18 12:10:14",-1,,
577041,Add,"2016-05-18 12:08:12",-1,,
577011,Add,"2016-05-18 12:05:30",-1,,
576982,Add,"2016-05-18 12:01:40",-1,,
576873,Add,"2016-05-18 11:53:07",-1,,
576831,Add,"2016-05-18 11:52:32",-1,,
576822,Add,"2016-05-18 11:52:22",-1,,
576802,Add,"2016-05-18 11:52:09",-1,,
576782,AddGroup,"2016-05-18 11:51:45",-1,,
576781,AddGroup,"2016-05-18 11:51:40",-1,,
576771,AddGroup,"2016-05-18 11:51:39",-1,,
576701,Add,"2016-05-17 09:54:01",-1,,
576681,Add,"2016-05-17 09:53:17",-1,,
576622,Add,"2016-05-17 09:50:37",-1,,
576601,AddGroup,"2016-05-16 10:58:19",-1,,
576591,Add,"2016-05-16 10:58:06",-1,,
576541,Add,"2016-05-16 08:38:47",-1,,
576531,Add,"2016-05-16 08:38:39",-1,,
576481,Add,"2016-05-16 08:37:39",-1,,
576451,Add,"2016-05-13 11:48:55",-1,,
576441,Add,"2016-05-13 11:48:46",-1,,
576401,Add,"2016-05-13 11:48:24",-1,,
576391,AddGroup,"2016-05-13 11:48:20",-1,,
576381,Add,"2016-05-13 08:49:14",52,Pepe,"Martín López"
576361,AddGroup,"2016-05-13 08:47:40",-1,,
576351,Add,"2016-05-13 08:47:32",-1,,
576341,Add,"2016-05-13 07:54:14",-1,,
576321,Add,"2016-05-13 07:54:01",-1,,
576311,Add,"2016-05-13 07:53:58",-1,,
576301,Add,"2016-05-12 11:19:29",52,Pepe,"Martín López"
576251,AddGroup,"2016-05-12 11:17:41",-1,,
576241,Add,"2016-05-12 11:17:36",-1,,
576231,Add,"2016-05-12 11:17:34",-1,,
576221,Add,"2016-05-12 10:30:37",52,Pepe,"Martín López"
576171,Add,"2016-05-11 16:41:13",51,Carlos,"Valeron Campos"
576161,Add,"2016-05-11 16:39:36",-1,,
576141,Add,"2016-05-11 16:39:22",-1,,
576131,AddGroup,"2016-05-11 16:39:19",-1,,
576081,Add,"2016-05-11 16:36:40",-1,,
576071,Add,"2016-05-11 16:36:22",-1,,
576021,Add,"2016-05-11 16:36:00",-1,,
576011,AddGroup,"2016-05-11 16:35:55",-1,,
576001,AddGroup,"2016-05-11 16:35:49",-1,,
575881,Add,"2016-05-10 11:08:38",-1,,
575871,Add,"2016-05-10 11:08:33",-1,,
575812,Add,"2016-05-10 11:04:27",-1,,
575811,AddGroup,"2016-05-09 10:46:04",-1,,
575801,Add,"2016-05-09 10:45:46",-1,,
575781,Add,"2016-05-09 10:44:22",-1,,
575651,AddGroup,"2016-05-09 09:29:17",-1,,
575551,AddGroup,"2016-05-09 08:57:25",49,Felipe,"Martínez Campos"
575541,Add,"2016-05-09 08:57:19",49,Felipe,"Martínez Campos"
575521,Add,"2016-05-09 08:56:38",49,Felipe,"Martínez Campos"
575511,Add,"2016-05-09 08:54:55",-1,,
575371,Add,"2016-05-09 08:54:01",-1,,
575351,Add,"2016-05-09 08:53:48",-1,,
575341,Add,"2016-05-09 08:53:45",-1,,
575311,Add,"2016-05-08 18:17:06",-1,,
575291,Add,"2016-05-07 18:31:42",-1,,
575251,Add,"2016-05-06 10:13:19",-1,,
575222,Add,"2016-05-06 10:12:58",-1,,
575201,Add,"2016-05-05 18:22:37",48,Lucia,"Martínez Campos"
575121,Add,"2016-05-05 18:21:52",48,Lucia,"Martínez Campos"
575101,Add,"2016-05-05 18:21:22",48,Lucia,"Martínez Campos"
575041,Add,"2016-05-05 18:18:15",-1,,
574991,Add,"2016-05-05 18:17:51",-1,,
574981,Add,"2016-05-05 18:17:46",-1,,
574931,AddGroup,"2016-05-05 11:34:51",-1,,
574891,Add,"2016-05-05 11:33:15",-1,,
574841,Add,"2016-05-05 07:49:35",31,"Antonio Jesús","Fernández García"
574831,Add,"2016-05-05 07:49:34",31,"Antonio Jesús","Fernández García"
574821,Add,"2016-05-05 07:49:34",31,"Antonio Jesús","Fernández García"
574811,Add,"2016-05-05 07:49:34",31,"Antonio Jesús","Fernández García"
574801,Add,"2016-05-05 07:49:33",31,"Antonio Jesús","Fernández García"
574791,Add,"2016-05-05 07:49:12",31,"Antonio Jesús","Fernández García"
574771,Add,"2016-05-05 07:49:10",31,"Antonio Jesús","Fernández García"
574781,Add,"2016-05-05 07:49:10",31,"Antonio Jesús","Fernández García"
574761,Add,"2016-05-05 07:49:09",31,"Antonio Jesús","Fernández García"
574751,Add,"2016-05-05 07:49:09",31,"Antonio Jesús","Fernández García"
574741,Add,"2016-05-05 07:49:09",31,"Antonio Jesús","Fernández García"
574731,Add,"2016-05-05 07:49:08",31,"Antonio Jesús","Fernández García"
574721,Add,"2016-05-05 07:49:08",31,"Antonio Jesús","Fernández García"
574711,Add,"2016-05-05 07:49:07",31,"Antonio Jesús","Fernández García"
574701,Add,"2016-05-05 07:49:07",31,"Antonio Jesús","Fernández García"
574691,Add,"2016-05-05 07:49:07",31,"Antonio Jesús","Fernández García"
574681,Add,"2016-05-05 07:49:07",31,"Antonio Jesús","Fernández García"
574671,Add,"2016-05-05 07:49:07",31,"Antonio Jesús","Fernández García"
574661,Add,"2016-05-05 07:49:07",31,"Antonio Jesús","Fernández García"
574651,Add,"2016-05-05 07:49:07",31,"Antonio Jesús","Fernández García"
574641,Add,"2016-05-05 07:48:17",31,"Antonio Jesús","Fernández García"
574631,Add,"2016-05-05 07:48:17",31,"Antonio Jesús","Fernández García"
574621,Add,"2016-05-05 07:48:16",31,"Antonio Jesús","Fernández García"
574611,Add,"2016-05-05 07:48:16",31,"Antonio Jesús","Fernández García"
574601,Add,"2016-05-05 07:48:16",31,"Antonio Jesús","Fernández García"
574561,Add,"2016-05-05 07:48:15",31,"Antonio Jesús","Fernández García"
574591,Add,"2016-05-05 07:48:15",31,"Antonio Jesús","Fernández García"
574581,Add,"2016-05-05 07:48:15",31,"Antonio Jesús","Fernández García"
574571,Add,"2016-05-05 07:48:15",31,"Antonio Jesús","Fernández García"
574551,Add,"2016-05-05 07:48:14",31,"Antonio Jesús","Fernández García"
574541,Add,"2016-05-05 07:48:14",31,"Antonio Jesús","Fernández García"
574531,Add,"2016-05-05 07:48:14",31,"Antonio Jesús","Fernández García"
574501,Add,"2016-05-05 07:48:13",31,"Antonio Jesús","Fernández García"
574491,Add,"2016-05-05 07:48:13",31,"Antonio Jesús","Fernández García"
574521,Add,"2016-05-05 07:48:13",31,"Antonio Jesús","Fernández García"
574511,Add,"2016-05-05 07:48:13",31,"Antonio Jesús","Fernández García"
574481,Add,"2016-05-05 07:48:12",31,"Antonio Jesús","Fernández García"
574471,Add,"2016-05-05 07:48:12",31,"Antonio Jesús","Fernández García"
574461,Add,"2016-05-05 07:48:12",31,"Antonio Jesús","Fernández García"
574431,Add,"2016-05-05 07:48:11",31,"Antonio Jesús","Fernández García"
574421,Add,"2016-05-05 07:48:11",31,"Antonio Jesús","Fernández García"
574451,Add,"2016-05-05 07:48:11",31,"Antonio Jesús","Fernández García"
574441,Add,"2016-05-05 07:48:11",31,"Antonio Jesús","Fernández García"
574411,Add,"2016-05-05 07:48:10",31,"Antonio Jesús","Fernández García"
574401,Add,"2016-05-05 07:48:09",31,"Antonio Jesús","Fernández García"
574391,Add,"2016-05-05 07:48:07",31,"Antonio Jesús","Fernández García"
574381,Add,"2016-05-05 07:48:06",31,"Antonio Jesús","Fernández García"
574371,Add,"2016-05-05 07:48:04",31,"Antonio Jesús","Fernández García"
574361,Add,"2016-05-05 07:48:04",31,"Antonio Jesús","Fernández García"
574351,Add,"2016-05-05 07:48:04",31,"Antonio Jesús","Fernández García"
574341,Add,"2016-05-05 07:48:03",31,"Antonio Jesús","Fernández García"
574331,Add,"2016-05-05 07:48:03",31,"Antonio Jesús","Fernández García"
574321,Add,"2016-05-05 07:48:03",31,"Antonio Jesús","Fernández García"
574311,Add,"2016-05-05 07:48:02",31,"Antonio Jesús","Fernández García"
574301,Add,"2016-05-05 07:48:02",31,"Antonio Jesús","Fernández García"
574291,Add,"2016-05-05 07:48:02",31,"Antonio Jesús","Fernández García"
574281,Add,"2016-05-05 07:48:01",31,"Antonio Jesús","Fernández García"
574271,Add,"2016-05-05 07:48:01",31,"Antonio Jesús","Fernández García"
574261,Add,"2016-05-05 07:48:01",31,"Antonio Jesús","Fernández García"
574251,Add,"2016-05-05 07:48:01",31,"Antonio Jesús","Fernández García"
574241,Add,"2016-05-05 07:48:00",31,"Antonio Jesús","Fernández García"
574231,Add,"2016-05-05 07:48:00",31,"Antonio Jesús","Fernández García"
574221,Add,"2016-05-05 07:48:00",31,"Antonio Jesús","Fernández García"
574201,Add,"2016-05-05 07:47:59",31,"Antonio Jesús","Fernández García"
574191,Add,"2016-05-05 07:47:59",31,"Antonio Jesús","Fernández García"
574181,Add,"2016-05-05 07:47:59",31,"Antonio Jesús","Fernández García"
574211,Add,"2016-05-05 07:47:59",31,"Antonio Jesús","Fernández García"
574171,Add,"2016-05-05 07:47:58",31,"Antonio Jesús","Fernández García"
574161,Add,"2016-05-05 07:47:58",31,"Antonio Jesús","Fernández García"
574151,Add,"2016-05-05 07:47:58",31,"Antonio Jesús","Fernández García"
574141,Add,"2016-05-05 07:47:57",31,"Antonio Jesús","Fernández García"
574131,Add,"2016-05-05 07:44:57",31,"Antonio Jesús","Fernández García"
574121,Add,"2016-05-05 07:44:57",31,"Antonio Jesús","Fernández García"
574111,Add,"2016-05-05 07:44:57",31,"Antonio Jesús","Fernández García"
574101,Add,"2016-05-05 07:44:57",31,"Antonio Jesús","Fernández García"
574071,Add,"2016-05-05 07:44:56",31,"Antonio Jesús","Fernández García"
574091,Add,"2016-05-05 07:44:56",31,"Antonio Jesús","Fernández García"
574081,Add,"2016-05-05 07:44:56",31,"Antonio Jesús","Fernández García"
574061,Add,"2016-05-05 07:44:55",31,"Antonio Jesús","Fernández García"
574051,Add,"2016-05-05 07:44:53",31,"Antonio Jesús","Fernández García"
