idInteraction,OperationPerformed,dateTime,UserId,name,surname
576381,Add,"2016-05-13 08:49:14",52,Pepe,"Martín López"
576301,Add,"2016-05-12 11:19:29",52,Pepe,"Martín López"
576221,Add,"2016-05-12 10:30:37",52,Pepe,"Martín López"
575551,AddGroup,"2016-05-09 08:57:25",49,Felipe,"Martínez Campos"
575541,Add,"2016-05-09 08:57:19",49,Felipe,"Martínez Campos"
575521,Add,"2016-05-09 08:56:38",49,Felipe,"Martínez Campos"
